(footprint "MountingHole_4.3mm_M4" (version 20211014) (generator pcbnew)
  (layer "F.Cu")
  (tedit 56D1B4CB)
  (descr "Mounting Hole 4.3mm, no annular, M4")
  (tags "mounting hole 4.3mm no annular m4")
  (property "Sheetfile" "back bone.kicad_sch")
  (property "Sheetname" "")
  (attr exclude_from_pos_files)
  (fp_text reference "H3" (at -0.025 -3.05) (layer "F.SilkS")
    (effects (font (size 1 1) (thickness 0.15)))
    (tstamp 9ad73146-8cca-4ed4-a165-7897699035e1)
  )
  (fp_text value "MountingHole_Pad" (at 0.025 3.225) (layer "F.Fab")
    (effects (font (size 1 1) (thickness 0.15)))
    (tstamp 5cad149d-205a-4ecd-b5f0-2c942964b0d6)
  )
  (fp_text user "${REFERENCE}" (at 0 0) (layer "F.Fab")
    (effects (font (size 1 1) (thickness 0.15)))
    (tstamp fceb89ef-68b3-4d35-9a89-0faf59a67dc5)
  )
  (fp_circle (center 0 0) (end 2.25 0) (layer "F.CrtYd") (width 0.05) (fill none) (tstamp 619d2d46-85d2-447a-9f2a-1f2854ab2595))
  (pad "" np_thru_hole circle (at 0 0) (size 4 4) (drill 4.3) (layers F&B.Cu *.Mask) (tstamp b5954c85-8bdf-45c6-b622-994f9351f787))
)
